Definition of a gtsummary Object
…
footnote_abbrev
Lists the abbreviation footnotes for a table. All abbreviation footnotes are collated into a single footnote. For example, ‘OR = Odds Ratio’ and ‘CI = Confidence Interval’ appear in a single footnote.

footnote
Lists the footnotes that will appear for each column.

spanning_header
Includes text printed above columns as spanning headers. See tbl_merge(...)$table_header output for example of use.

NOTE: Columns ‘hide’, ‘align’, ‘missing_emdash’, ‘indent’, ‘bold’, and ‘italic’ MUST follow the tidyverse style guidelines and include spaces around any variable names, e.g. row_type == 'label' (NOT row_type=='label').

Example from tbl_regression()

tbl_regression_ex$table_header
#> # A tibble: 21 x 13
#>    column  label  hide  align missing_emdash indent  text_interpret bold  italic
#>    <chr>   <chr>  <lgl> <chr> <chr>          <chr>   <chr>          <chr> <chr> 
#>  1 variab~ varia~ TRUE  cent~ <NA>           <NA>    gt::md         <NA>  <NA>  
#>  2 var_la~ var_l~ TRUE  cent~ <NA>           <NA>    gt::md         <NA>  <NA>  
#>  3 var_ty~ var_t~ TRUE  cent~ <NA>           <NA>    gt::md         <NA>  <NA>  
#>  4 refere~ refer~ TRUE  cent~ <NA>           <NA>    gt::md         <NA>  <NA>  
#>  5 row_ty~ row_t~ TRUE  cent~ <NA>           <NA>    gt::md         <NA>  <NA>  
#>  6 label   **Cha~ FALSE left  <NA>           row_ty~ gt::md         <NA>  <NA>  
#>  7 N       **N**  TRUE  cent~ <NA>           <NA>    gt::md         <NA>  <NA>  
#>  8 term    term   TRUE  cent~ <NA>           <NA>    gt::md         <NA>  <NA>  
#>  9 var_cl~ var_c~ TRUE  cent~ <NA>           <NA>    gt::md         <NA>  <NA>  
#> 10 var_nl~ var_n~ TRUE  cent~ <NA>           <NA>    gt::md         <NA>  <NA>  
#> # ... with 11 more rows, and 4 more variables: fmt_fun <list>,
#> #   footnote_abbrev <chr>, footnote <chr>, spanning_header <chr>
…
The other columns in .$table_body are created by the user and are likely printed in the output. Formatting and printing instructions for these columns is stored in .$table_header.

table_header

The .$table_header has one row for every column in .$table_body containing instructions how to format each column, the column headers, and more. There are a few internal {gtsummary} functions to assist in constructing and modifying a .$table_header data frame.

First is the table_header_fill_missing() function. This function ensures .$table_header contains a row for every column of .$table_body. If a column does not exist, it is populated with appropriate default values.

gtsummary:::table_header_fill_missing(
  table_header = tibble(column = names(tbl_regression_ex$table_body))
) 
#> # A tibble: 21 x 13
#>    column  label  hide  align missing_emdash indent  text_interpret bold  italic
#>    <chr>   <chr>  <lgl> <chr> <chr>          <chr>   <chr>          <chr> <chr> 
#>  1 variab~ varia~ TRUE  cent~ <NA>           <NA>    gt::md         <NA>  <NA>  
#>  2 var_la~ var_l~ TRUE  cent~ <NA>           <NA>    gt::md         <NA>  <NA>  
#>  3 var_ty~ var_t~ TRUE  cent~ <NA>           <NA>    gt::md         <NA>  <NA>  
#>  4 refere~ refer~ TRUE  cent~ <NA>           <NA>    gt::md         <NA>  <NA>  
#>  5 row_ty~ row_t~ TRUE  cent~ <NA>           <NA>    gt::md         <NA>  <NA>  
#>  6 label   label  TRUE  left  <NA>           row_ty~ gt::md         <NA>  <NA>  
#>  7 N       N      TRUE  cent~ <NA>           <NA>    gt::md         <NA>  <NA>  
#>  8 term    term   TRUE  cent~ <NA>           <NA>    gt::md         <NA>  <NA>  
#>  9 var_cl~ var_c~ TRUE  cent~ <NA>           <NA>    gt::md         <NA>  <NA>  
#> 10 var_nl~ var_n~ TRUE  cent~ <NA>           <NA>    gt::md         <NA>  <NA>  
#> # ... with 11 more rows, and 4 more variables: fmt_fun <list>,
#> #   footnote_abbrev <chr>, footnote <chr>, spanning_header <chr>
…
