Generate a data dictionnary and search for variables with look_for()
…
Joseph Larmarange

Showing a summary of a data frame

Default printing of tibbles

It is a common need to easily get a description of all variables in a data frame.

When a data frame is converted into a tibble (e.g. with dplyr::as_tibble()), it as a nice printing showing the first rows of the data frame as well as the type of column.

library(dplyr)

iris %>% as_tibble()

## # A tibble: 150 x 5
##    Sepal.Length Sepal.Width Petal.Length Petal.Width Species
##           <dbl>       <dbl>        <dbl>       <dbl> <fct>  
##  1          5.1         3.5          1.4         0.2 setosa 
##  2          4.9         3            1.4         0.2 setosa 
##  3          4.7         3.2          1.3         0.2 setosa 
##  4          4.6         3.1          1.5         0.2 setosa 
##  5          5           3.6          1.4         0.2 setosa 
##  6          5.4         3.9          1.7         0.4 setosa 
##  7          4.6         3.4          1.4         0.3 setosa 
##  8          5           3.4          1.5         0.2 setosa 
##  9          4.4         2.9          1.4         0.2 setosa 
## 10          4.9         3.1          1.5         0.1 setosa 
## # ... with 140 more rows

However, when you have too many variables, all of them cannot be printed and their are just listed.

data(fertility, package = "questionr")
women

## # A tibble: 2,000 x 17
##    id_woman id_household weight interview_date date_of_birth   age residency
##       <dbl>        <dbl>  <dbl> <date>         <date>        <dbl> <dbl+lbl>
##  1      391          381  1.80  2012-05-05     1997-03-07       15 2 [rural]
##  2     1643         1515  1.80  2012-01-23     1982-01-06       30 2 [rural]
##  3       85           85  1.80  2012-01-21     1979-01-01       33 2 [rural]
##  4      881          844  1.80  2012-01-06     1968-03-29       43 2 [rural]
##  5     1981         1797  1.80  2012-05-11     1986-05-25       25 2 [rural]
##  6     1072         1015  0.998 2012-02-20     1993-07-03       18 2 [rural]
##  7     1978         1794  0.998 2012-02-23     1967-01-28       45 2 [rural]
##  8     1607         1486  0.998 2012-02-20     1989-01-21       23 2 [rural]
##  9      738          711  0.192 2012-03-09     1962-07-24       49 2 [rural]
## 10     1656         1525  0.192 2012-03-15     1980-12-25       31 2 [rural]
## # ... with 1,990 more rows, and 10 more variables: region <dbl+lbl>,
## #   instruction <dbl+lbl>, employed <dbl+lbl>, matri <dbl+lbl>,
## #   religion <dbl+lbl>, newspaper <dbl+lbl>, radio <dbl+lbl>, tv <dbl+lbl>,
## #   ideal_nb_children <dbl+lbl>, test <dbl+lbl>
…
Both can be combined:

look_for(women) %>%
  lookfor_to_long_format() %>%
  convert_list_columns_to_character()

## # A tibble: 41 x 13
##      pos variable label col_type class type  levels value_labels na_values
##    <int> <chr>    <chr> <chr>    <chr> <chr> <chr>  <chr>        <chr>    
##  1     1 id_woman Woma~ dbl      nume~ doub~ <NA>   <NA>         ""       
##  2     2 id_hous~ Hous~ dbl      nume~ doub~ <NA>   <NA>         ""       
##  3     3 weight   Samp~ dbl      nume~ doub~ <NA>   <NA>         ""       
##  4     4 intervi~ Inte~ date     Date  doub~ <NA>   <NA>         ""       
##  5     5 date_of~ Date~ date     Date  doub~ <NA>   <NA>         ""       
##  6     6 age      Age ~ dbl      nume~ doub~ <NA>   <NA>         ""       
##  7     7 residen~ Urba~ dbl+lbl  have~ doub~ <NA>   [1] urban    ""       
##  8     7 residen~ Urba~ dbl+lbl  have~ doub~ <NA>   [2] rural    ""       
##  9     8 region   Regi~ dbl+lbl  have~ doub~ <NA>   [1] North    ""       
## 10     8 region   Regi~ dbl+lbl  have~ doub~ <NA>   [2] East     ""       
## # ... with 31 more rows, and 4 more variables: na_range <chr>,
## #   unique_values <int>, n_na <int>, range <chr>
…
