…
    Message
      Warning for variable 'mpg':
      simpleWarning in wilcox.test.default(x = DATA[[1L]], y = DATA[[2L]], ...): cannot compute exact p-value with ties
      Warning for variable 'disp':
      simpleWarning in wilcox.test.default(x = DATA[[1L]], y = DATA[[2L]], ...): cannot compute exact p-value with ties
      Warning for variable 'hp':
      simpleWarning in wilcox.test.default(x = DATA[[1L]], y = DATA[[2L]], ...): cannot compute exact p-value with ties
      Warning for variable 'drat':
      simpleWarning in wilcox.test.default(x = DATA[[1L]], y = DATA[[2L]], ...): cannot compute exact p-value with ties
      Warning for variable 'wt':
      simpleWarning in wilcox.test.default(x = DATA[[1L]], y = DATA[[2L]], ...): cannot compute exact p-value with ties
      Warning for variable 'qsec':
      simpleWarning in wilcox.test.default(x = DATA[[1L]], y = DATA[[2L]], ...): cannot compute exact p-value with ties
    Output
      # A tibble: 22 x 4
         `**Characteristic**` `**0**, N = 19`      `**1**, N = 13`      `**p-value**`
         <chr>                <chr>                <chr>                <chr>        
       1 mpg                  17.3 (14.9, 19.2)    22.8 (21.0, 30.4)    0.002        
       2 cyl                  <NA>                 <NA>                 0.009        
       3 4                    3 (16%)              8 (62%)              <NA>         
       4 6                    4 (21%)              3 (23%)              <NA>         
       5 8                    12 (63%)             2 (15%)              <NA>         
       6 disp                 276 (196, 360)       120 (79, 160)        <0.001       
       7 hp                   175 (116, 192)       109 (66, 113)        0.046        
       8 drat                 3.15 (3.07, 3.70)    4.08 (3.85, 4.22)    <0.001       
       9 wt                   3.52 (3.44, 3.84)    2.32 (1.94, 2.78)    <0.001       
      10 qsec                 17.82 (17.18, 19.17) 17.02 (16.46, 18.61) 0.3          
      # ... with 12 more rows
…
    Message
      Warning for variable 'mpg':
      simpleWarning in wilcox.test.default(x = DATA[[1L]], y = DATA[[2L]], ...): cannot compute exact p-value with ties
      Warning for variable 'disp':
      simpleWarning in wilcox.test.default(x = DATA[[1L]], y = DATA[[2L]], ...): cannot compute exact p-value with ties
      Warning for variable 'hp':
      simpleWarning in wilcox.test.default(x = DATA[[1L]], y = DATA[[2L]], ...): cannot compute exact p-value with ties
      Warning for variable 'drat':
      simpleWarning in wilcox.test.default(x = DATA[[1L]], y = DATA[[2L]], ...): cannot compute exact p-value with ties
      Warning for variable 'wt':
      simpleWarning in wilcox.test.default(x = DATA[[1L]], y = DATA[[2L]], ...): cannot compute exact p-value with ties
      Warning for variable 'qsec':
      simpleWarning in wilcox.test.default(x = DATA[[1L]], y = DATA[[2L]], ...): cannot compute exact p-value with ties
    Output
      # A tibble: 28 x 4
         `**Characteristic**` `**0**, N = 19`   `**1**, N = 13`   `**p-value**`
         <chr>                <chr>             <chr>             <chr>        
       1 mpg                  <NA>              <NA>              0.002        
       2 Median (IQR)         17.3 (14.9, 19.2) 22.8 (21.0, 30.4) <NA>         
       3 cyl                  <NA>              <NA>              0.009        
       4 4                    3 (16%)           8 (62%)           <NA>         
       5 6                    4 (21%)           3 (23%)           <NA>         
       6 8                    12 (63%)          2 (15%)           <NA>         
       7 disp                 <NA>              <NA>              <0.001       
       8 Median (IQR)         276 (196, 360)    120 (79, 160)     <NA>         
       9 hp                   <NA>              <NA>              0.046        
      10 Median (IQR)         175 (116, 192)    109 (66, 113)     <NA>         
      # ... with 18 more rows
…
        "aov", hp ~ "oneway.test", cyl ~ "chisq.test.no.correct", carb ~ "mood.test")) %>%
        as_tibble()
    Message
      ! Use of `vars()` is now deprecated and support will soon be removed. Please replace calls to `vars()` with `c()`.
      Warning for variable 'cyl':
      simpleWarning in stats::chisq.test(x = c(6, 6, 4, 6, 8, 6, 8, 4, 4, 6, 6, 8, 8, : Chi-squared approximation may be incorrect
      Multiple parameters; naming those columns num.df, den.df
      Warning for variable 'drat':
      simpleWarning in wilcox.test.default(x = DATA[[1L]], y = DATA[[2L]], ...): cannot compute exact p-value with ties
      Warning for variable 'wt':
      simpleWarning in wilcox.test.default(x = DATA[[1L]], y = DATA[[2L]], ...): cannot compute exact p-value with ties
      Warning for variable 'qsec':
      simpleWarning in wilcox.test.default(x = DATA[[1L]], y = DATA[[2L]], ...): cannot compute exact p-value with ties
    Output
      # A tibble: 22 x 4
         `**Characteristic**` `**0**, N = 19`      `**1**, N = 13`      `**p-value**`
         <chr>                <chr>                <chr>                <chr>        
       1 mpg                  17.3 (14.9, 19.2)    22.8 (21.0, 30.4)    0.001        
       2 cyl                  <NA>                 <NA>                 0.013        
       3 4                    3 (16%)              8 (62%)              <NA>         
       4 6                    4 (21%)              3 (23%)              <NA>         
       5 8                    12 (63%)             2 (15%)              <NA>         
       6 disp                 276 (196, 360)       120 (79, 160)        <0.001       
       7 hp                   175 (116, 192)       109 (66, 113)        0.2          
       8 drat                 3.15 (3.07, 3.70)    4.08 (3.85, 4.22)    <0.001       
       9 wt                   3.52 (3.44, 3.84)    2.32 (1.94, 2.78)    <0.001       
      10 qsec                 17.82 (17.18, 19.17) 17.02 (16.46, 18.61) 0.3          
      # ... with 12 more rows
…
    Code
      tbl_summary(mtcars, by = am) %>% add_p(test = list(vars(mpg) ~ t.test, disp ~
        aov)) %>% as_tibble()
    Message
      ! Use of `vars()` is now deprecated and support will soon be removed. Please replace calls to `vars()` with `c()`.
      Warning for variable 'hp':
      simpleWarning in wilcox.test.default(x = DATA[[1L]], y = DATA[[2L]], ...): cannot compute exact p-value with ties
      Warning for variable 'drat':
      simpleWarning in wilcox.test.default(x = DATA[[1L]], y = DATA[[2L]], ...): cannot compute exact p-value with ties
      Warning for variable 'wt':
      simpleWarning in wilcox.test.default(x = DATA[[1L]], y = DATA[[2L]], ...): cannot compute exact p-value with ties
      Warning for variable 'qsec':
      simpleWarning in wilcox.test.default(x = DATA[[1L]], y = DATA[[2L]], ...): cannot compute exact p-value with ties
    Output
      # A tibble: 22 x 4
         `**Characteristic**` `**0**, N = 19`      `**1**, N = 13`      `**p-value**`
         <chr>                <chr>                <chr>                <chr>        
       1 mpg                  17.3 (14.9, 19.2)    22.8 (21.0, 30.4)    0.001        
       2 cyl                  <NA>                 <NA>                 0.009        
       3 4                    3 (16%)              8 (62%)              <NA>         
       4 6                    4 (21%)              3 (23%)              <NA>         
       5 8                    12 (63%)             2 (15%)              <NA>         
       6 disp                 276 (196, 360)       120 (79, 160)        <0.001       
       7 hp                   175 (116, 192)       109 (66, 113)        0.046        
       8 drat                 3.15 (3.07, 3.70)    4.08 (3.85, 4.22)    <0.001       
       9 wt                   3.52 (3.44, 3.84)    2.32 (1.94, 2.78)    <0.001       
      10 qsec                 17.82 (17.18, 19.17) 17.02 (16.46, 18.61) 0.3          
      # ... with 12 more rows
…
