# tbl_summary creates output without error/warning (no by var)

    Code
      purrr::map(lst_tbl, as_tibble)
    Output
      [[1]]
      # A tibble: 23 x 2
         `**Characteristic**` `**N = 32**`        
         <chr>                <chr>               
       1 mpg                  19.2 (15.4, 22.8)   
       2 cyl                  <NA>                
       3 8                    14 (44%)            
       4 4                    11 (34%)            
       5 6                    7 (22%)             
       6 disp                 196 (121, 326)      
       7 hp                   123 (96, 180)       
       8 drat                 3.70 (3.08, 3.92)   
       9 wt                   3.33 (2.58, 3.61)   
      10 qsec                 17.71 (16.89, 18.90)
      # ... with 13 more rows
…
# tbl_summary creates output without error/warning for continuous2 (no by var)

    Code
      purrr::map(list(mtcars, iris), ~ tbl_summary(.x, type = all_continuous() ~
        "continuous2", sort = list(all_categorical() ~ "frequency")) %>% as_tibble())
    Output
      [[1]]
      # A tibble: 29 x 2
         `**Characteristic**` `**N = 32**`     
         <chr>                <chr>            
       1 mpg                  <NA>             
       2 Median (IQR)         19.2 (15.4, 22.8)
       3 cyl                  <NA>             
       4 8                    14 (44%)         
       5 4                    11 (34%)         
       6 6                    7 (22%)          
       7 disp                 <NA>             
       8 Median (IQR)         196 (121, 326)   
       9 hp                   <NA>             
      10 Median (IQR)         123 (96, 180)    
      # ... with 19 more rows
…
