…
String that is made into the table caption. The attribute
`"text_interpret"` is either `c("md", "html")`.

**`horizontal_line_above`**

Expression identifying a row where a horizontal line is placed above in
the table.

Example from
[`tbl_regression()`](https://www.danieldsjoberg.com/gtsummary/dev/reference/tbl_regression.md)

``` r
tbl_regression_ex$table_styling
#> $header
#> # A tibble: 24 × 6
#>    column             hide  align  interpret_label label           modify_stat_N
#>    <chr>              <lgl> <chr>  <chr>           <chr>                   <int>
#>  1 variable           TRUE  center gt::md          variable                  179
#>  2 var_label          TRUE  center gt::md          var_label                 179
#>  3 var_type           TRUE  center gt::md          var_type                  179
#>  4 reference_row      TRUE  center gt::md          reference_row             179
#>  5 row_type           TRUE  center gt::md          row_type                  179
#>  6 header_row         TRUE  center gt::md          header_row                179
#>  7 N_obs              TRUE  center gt::md          N_obs                     179
#>  8 N                  TRUE  center gt::md          **N**                     179
#>  9 coefficients_type  TRUE  center gt::md          coefficients_t…           179
#> 10 coefficients_label TRUE  center gt::md          coefficients_l…           179
#> # ℹ 14 more rows
…
