Definition of a gtsummary Object • gtsummary
…
String that is made into the table caption. The attribute
"text_interpret" is either
c("md", "html").

horizontal_line_above

Expression identifying a row where a horizontal line is placed above
in the table.

Example from tbl_regression()

tbl_regression_ex$table_styling
#> $header
#> # A tibble: 24 × 9
#>    column             hide  align  interpret_label label  interpret_spanning_h…¹
#>    <chr>              <lgl> <chr>  <chr>           <chr>  <chr>                 
#>  1 variable           TRUE  center gt::md          varia… gt::md                
#>  2 var_label          TRUE  center gt::md          var_l… gt::md                
#>  3 var_type           TRUE  center gt::md          var_t… gt::md                
#>  4 reference_row      TRUE  center gt::md          refer… gt::md                
#>  5 row_type           TRUE  center gt::md          row_t… gt::md                
#>  6 header_row         TRUE  center gt::md          heade… gt::md                
#>  7 N_obs              TRUE  center gt::md          N_obs  gt::md                
#>  8 N                  TRUE  center gt::md          **N**  gt::md                
#>  9 coefficients_type  TRUE  center gt::md          coeff… gt::md                
#> 10 coefficients_label TRUE  center gt::md          coeff… gt::md                
#> # ℹ 14 more rows
#> # ℹ abbreviated name: ¹​interpret_spanning_header
#> # ℹ 3 more variables: spanning_header <chr>, modify_stat_N <int>,
#> #   modify_stat_n <int>
…
