…
```{r, eval = FALSE}
# Passing dots
toupper_dots <- function(data, ...) {
  sel <- dplyr::select(data, ...)
  rlang::set_names(sel, toupper)
}
# Interpolating a named argument with {{ }}
toupper_arg <- function(data, arg) {
  sel <- dplyr::select(data, {{ arg }})
  rlang::set_names(sel, toupper)
}

mtcars %>% toupper_dots(mpg:disp, vs)
#> # A tibble: 32 x 4
#>     MPG   CYL  DISP    VS
#>   <dbl> <dbl> <dbl> <dbl>
#> 1  21       6   160     0
#> 2  21       6   160     0
#> 3  22.8     4   108     1
#> 4  21.4     6   258     1
#> # … with 28 more rows

mtcars %>% toupper_arg(c(mpg:disp, vs))
#> # A tibble: 32 x 4
#>     MPG   CYL  DISP    VS
#>   <dbl> <dbl> <dbl> <dbl>
#> 1  21       6   160     0
#> 2  21       6   160     0
#> 3  22.8     4   108     1
#> 4  21.4     6   258     1
#> # … with 28 more rows
```
…
