Tutorial: fmt_table1 • clintable
…
#> meta_data :
#> # A tibble: 2 x 10
#>   .variable .class .summary_type .dichotomous_va~ .var_label .stat_display
#>   <chr>     <chr>  <chr>         <list>           <chr>      <chr>        
#> 1 marker    numer~ continuous    <NULL>           Marker Le~ {median} ({q~
#> 2 stage     factor categorical   <NULL>           T Stage    {n} ({p}%)   
#> # ... with 4 more variables: .digits <dbl>, stat_test <chr>,
#> #   pvalue_exact <dbl>, pvalue <chr>
#> 
#> call :
#> fmt_table1(trial2, by = "trt")
#> 
#> inputs :
#> $data
#> # A tibble: 200 x 3
#>    trt     marker stage
#>    <chr>    <dbl> <fct>
#>  1 Drug     0.16  T3   
#>  2 Drug     1.11  T4   
#>  3 Drug     0.277 T1   
#>  4 Placebo  2.07  T4   
#>  5 Drug     2.77  T2   
#>  6 Drug     0.613 T1   
#>  7 Drug     0.354 T4   
#>  8 Drug     1.74  T4   
#>  9 Drug     0.144 T4   
#> 10 Placebo  0.205 T2   
#> # ... with 190 more rows
…
